Como mesclar conjuntos de dados no R. Parte I: left_join() - Santhiago Cristiano
…
# atribuindo o ano como "nome" para cada um dos data frames da lista

names(morte_infantil) <- 2010:2012

Como argumentos para read_csv2() passamos o encoding dos nossos arquivos csv dentro da função locale(), que neste caso é latin1. O latin1 é apenas um dos diversos encodings existentes, para saber mais, clique aqui. Além do encoding, passamos col_names = TRUE, para que a primeira linha dos nossos arquivos sejam reconhecidas como os nomes das colunas. Podemos ainda definir explicitamente o tipo de cada coluna com col_types. Nos dados temos 4 colunas, então, a primeira e a segunda coluna serão do tipo c = character, a terceira do tipo d = double e a última do tipo i = integer.

# visualizando a lista

morte_infantil

## $`2010`
## # A tibble: 2,386 x 4
##    codigo municipio             total   ano
##    <chr>  <chr>                 <dbl> <int>
##  1 110001 Alta Floresta D'Oeste     5  2010
##  2 110002 Ariquemes                29  2010
##  3 110004 Cacoal                   14  2010
##  4 110006 Colorado do Oeste         2  2010
##  5 110007 Corumbiara                1  2010
##  6 110008 Costa Marques             1  2010
##  7 110009 Espigão D'Oeste           3  2010
##  8 110010 Guajará-Mirim            13  2010
##  9 110011 Jaru                      8  2010
## 10 110012 Ji-Paraná                31  2010
## # ... with 2,376 more rows
## 
## $`2011`
## # A tibble: 2,384 x 4
##    codigo municipio             total   ano
##    <chr>  <chr>                 <dbl> <int>
##  1 110001 Alta Floresta D'Oeste     3  2011
##  2 110002 Ariquemes                15  2011
##  3 110004 Cacoal                   14  2011
##  4 110005 Cerejeiras                2  2011
##  5 110007 Corumbiara                1  2011
##  6 110008 Costa Marques             1  2011
##  7 110009 Espigão D'Oeste           6  2011
##  8 110010 Guajará-Mirim             5  2011
##  9 110011 Jaru                      2  2011
## 10 110012 Ji-Paraná                10  2011
## # ... with 2,374 more rows
## 
## $`2012`
## # A tibble: 2,313 x 4
##    codigo municipio             total   ano
##    <chr>  <chr>                 <dbl> <int>
##  1 110001 Alta Floresta D'Oeste     1  2012
##  2 110002 Ariquemes                14  2012
##  3 110004 Cacoal                   12  2012
##  4 110005 Cerejeiras                3  2012
##  5 110006 Colorado do Oeste         2  2012
##  6 110008 Costa Marques             2  2012
##  7 110009 Espigão D'Oeste           1  2012
##  8 110010 Guajará-Mirim             3  2012
##  9 110011 Jaru                      6  2012
## 10 110012 Ji-Paraná                10  2012
## # ... with 2,303 more rows
…
Criada a função, agora podemos simplesmente passar a lista morte_infantil e a função mesclar_dados como argumentos para o map() e ver a mágica acontecer:

morte_infantil_mesclado <- map(morte_infantil, mesclar_dados)

morte_infantil_mesclado

## $`2010`
## # A tibble: 2,386 x 6
##    cod_ibge regiao uf    municipio             total   ano
##    <chr>    <chr>  <chr> <chr>                 <dbl> <int>
##  1 1100015  Norte  RO    Alta Floresta D'Oeste     5  2010
##  2 1100023  Norte  RO    Ariquemes                29  2010
##  3 1100049  Norte  RO    Cacoal                   14  2010
##  4 1100064  Norte  RO    Colorado do Oeste         2  2010
##  5 1100072  Norte  RO    Corumbiara                1  2010
##  6 1100080  Norte  RO    Costa Marques             1  2010
##  7 1100098  Norte  RO    Espigão D'Oeste           3  2010
##  8 1100106  Norte  RO    Guajará-Mirim            13  2010
##  9 1100114  Norte  RO    Jaru                      8  2010
## 10 1100122  Norte  RO    Ji-Paraná                31  2010
## # ... with 2,376 more rows
## 
## $`2011`
## # A tibble: 2,384 x 6
##    cod_ibge regiao uf    municipio             total   ano
##    <chr>    <chr>  <chr> <chr>                 <dbl> <int>
##  1 1100015  Norte  RO    Alta Floresta D'Oeste     3  2011
##  2 1100023  Norte  RO    Ariquemes                15  2011
##  3 1100049  Norte  RO    Cacoal                   14  2011
##  4 1100056  Norte  RO    Cerejeiras                2  2011
##  5 1100072  Norte  RO    Corumbiara                1  2011
##  6 1100080  Norte  RO    Costa Marques             1  2011
##  7 1100098  Norte  RO    Espigão D'Oeste           6  2011
##  8 1100106  Norte  RO    Guajará-Mirim             5  2011
##  9 1100114  Norte  RO    Jaru                      2  2011
## 10 1100122  Norte  RO    Ji-Paraná                10  2011
## # ... with 2,374 more rows
## 
## $`2012`
## # A tibble: 2,313 x 6
##    cod_ibge regiao uf    municipio             total   ano
##    <chr>    <chr>  <chr> <chr>                 <dbl> <int>
##  1 1100015  Norte  RO    Alta Floresta D'Oeste     1  2012
##  2 1100023  Norte  RO    Ariquemes                14  2012
##  3 1100049  Norte  RO    Cacoal                   12  2012
##  4 1100056  Norte  RO    Cerejeiras                3  2012
##  5 1100064  Norte  RO    Colorado do Oeste         2  2012
##  6 1100080  Norte  RO    Costa Marques             2  2012
##  7 1100098  Norte  RO    Espigão D'Oeste           1  2012
##  8 1100106  Norte  RO    Guajará-Mirim             3  2012
##  9 1100114  Norte  RO    Jaru                      6  2012
## 10 1100122  Norte  RO    Ji-Paraná                10  2012
## # ... with 2,303 more rows
…
