Como juntar conjuntos de dados no R. Parte II: dplyr::inner_join() - Santhiago Cristiano
…
mortes_infantis <- map(
  arquivos_csv,
  read_csv2,
  locale(encoding = "latin1"),
  col_names = TRUE,
  col_types = "ccccdi"
) %>% 
  set_names(2010:2012)

mortes_infantis

## $`2010`
## # A tibble: 2,386 x 6
##    cod_ibge regiao uf    municipio             total   ano
##    <chr>    <chr>  <chr> <chr>                 <dbl> <int>
##  1 1100015  Norte  RO    Alta Floresta D'Oeste     5  2010
##  2 1100023  Norte  RO    Ariquemes                29  2010
##  3 1100049  Norte  RO    Cacoal                   14  2010
##  4 1100064  Norte  RO    Colorado do Oeste         2  2010
##  5 1100072  Norte  RO    Corumbiara                1  2010
##  6 1100080  Norte  RO    Costa Marques             1  2010
##  7 1100098  Norte  RO    Espigão D'Oeste           3  2010
##  8 1100106  Norte  RO    Guajará-Mirim            13  2010
##  9 1100114  Norte  RO    Jaru                      8  2010
## 10 1100122  Norte  RO    Ji-Paraná                31  2010
## # ... with 2,376 more rows
## 
## $`2011`
## # A tibble: 2,384 x 6
##    cod_ibge regiao uf    municipio             total   ano
##    <chr>    <chr>  <chr> <chr>                 <dbl> <int>
##  1 1100015  Norte  RO    Alta Floresta D'Oeste     3  2011
##  2 1100023  Norte  RO    Ariquemes                15  2011
##  3 1100049  Norte  RO    Cacoal                   14  2011
##  4 1100056  Norte  RO    Cerejeiras                2  2011
##  5 1100072  Norte  RO    Corumbiara                1  2011
##  6 1100080  Norte  RO    Costa Marques             1  2011
##  7 1100098  Norte  RO    Espigão D'Oeste           6  2011
##  8 1100106  Norte  RO    Guajará-Mirim             5  2011
##  9 1100114  Norte  RO    Jaru                      2  2011
## 10 1100122  Norte  RO    Ji-Paraná                10  2011
## # ... with 2,374 more rows
## 
## $`2012`
## # A tibble: 2,313 x 6
##    cod_ibge regiao uf    municipio             total   ano
##    <chr>    <chr>  <chr> <chr>                 <dbl> <int>
##  1 1100015  Norte  RO    Alta Floresta D'Oeste     1  2012
##  2 1100023  Norte  RO    Ariquemes                14  2012
##  3 1100049  Norte  RO    Cacoal                   12  2012
##  4 1100056  Norte  RO    Cerejeiras                3  2012
##  5 1100064  Norte  RO    Colorado do Oeste         2  2012
##  6 1100080  Norte  RO    Costa Marques             2  2012
##  7 1100098  Norte  RO    Espigão D'Oeste           1  2012
##  8 1100106  Norte  RO    Guajará-Mirim             3  2012
##  9 1100114  Norte  RO    Jaru                      6  2012
## 10 1100122  Norte  RO    Ji-Paraná                10  2012
## # ... with 2,303 more rows
…
