Teste - Santhiago Cristiano
…
Morbi ipsum tortor, ultricies a erat sed, varius placerat lectus. Integer porttitor diam a posuere bibendum. Nam venenatis orci sed cursus hendrerit. Maecenas rhoncus urna non sem porttitor sodales. Sed nec erat sed magna tempor condimentum. In a porta quam, nec elementum magna. Sed molestie volutpat felis, sit amet vulputate ipsum cursus ac. Vestibulum bibendum nisl in nisl porttitor eleifend. Nulla suscipit, dolor quis consequat porta, mauris justo sagittis ligula, eget congue mauris risus sed turpis. Vestibulum tristique, libero vitae porta feugiat, eros nisi bibendum ex, id volutpat erat enim ut nulla. Duis quis elementum mi, ut mattis quam. Suspendisse suscipit consequat euismod. Aliquam in condimentum nibh. Phasellus eu ante quis dui rutrum lobortis.

iris_2 <- tidyr::pivot_longer(iris, -Species, names_to = "type", values_to = "value")
iris_2

## # A tibble: 600 x 3
##    Species type         value
##    <fct>   <chr>        <dbl>
##  1 setosa  Sepal.Length   5.1
##  2 setosa  Sepal.Width    3.5
##  3 setosa  Petal.Length   1.4
##  4 setosa  Petal.Width    0.2
##  5 setosa  Sepal.Length   4.9
##  6 setosa  Sepal.Width    3  
##  7 setosa  Petal.Length   1.4
##  8 setosa  Petal.Width    0.2
##  9 setosa  Sepal.Length   4.7
## 10 setosa  Sepal.Width    3.2
## # ... with 590 more rows
…
