Testando Syntax Highlight - Santhiago Cristiano
…
Nulla facilisi. Pellentesque id aliquam nulla, vitae consectetur mi. Donec non lorem scelerisque, pellentesque leo placerat, tristique tellus. Ut in dignissim leo. Sed ullamcorper at sapien ut faucibus. Aliquam erat volutpat. In laoreet turpis et urna viverra sodales. Proin quis pharetra massa, id iaculis justo. Proin malesuada pretium nisl in malesuada.

tidyr::pivot_longer(data = iris, -Species, names_to = "type", values_to = "value")

## # A tibble: 600 x 3
##    Species type         value
##    <fct>   <chr>        <dbl>
##  1 setosa  Sepal.Length   5.1
##  2 setosa  Sepal.Width    3.5
##  3 setosa  Petal.Length   1.4
##  4 setosa  Petal.Width    0.2
##  5 setosa  Sepal.Length   4.9
##  6 setosa  Sepal.Width    3  
##  7 setosa  Petal.Length   1.4
##  8 setosa  Petal.Width    0.2
##  9 setosa  Sepal.Length   4.7
## 10 setosa  Sepal.Width    3.2
## # ... with 590 more rows
…
