…
library(reticulate)

Lorem ipsum dolor sit amet, consectetur adipiscing elit. Nulla sit amet ex eu lectus sodales tincidunt non eu magna. Proin dapibus libero sit amet erat semper, id consequat metus condimentum. Fusce cursus nec neque eu vulputate. Curabitur tempor sit amet nunc eget malesuada. Integer in luctus sapien, eget blandit sem. Aliquam blandit, tortor vel rhoncus molestie, nisi ipsum interdum orci, quis pharetra tellus libero sed arcu. Sed dapibus massa at lacus vulputate placerat.

ggplot2::ggplot(mtcars, ggplot2::aes(factor(cyl), mpg)) +
  ggplot2::geom_point()

<img src="{{< blogdown/postref >}}index_files/figure-html/unnamed-chunk-2-1.png" width="672" />

Nulla facilisi. Pellentesque id aliquam nulla, vitae consectetur mi. Donec non lorem scelerisque, pellentesque leo placerat, tristique tellus. Ut in dignissim leo. Sed ullamcorper at sapien ut faucibus. Aliquam erat volutpat. In laoreet turpis et urna viverra sodales. Proin quis pharetra massa, id iaculis justo. Proin malesuada pretium nisl in malesuada.

tidyr::pivot_longer(data = iris, -Species, names_to = "type", values_to = "value")

## # A tibble: 600 x 3
##    Species type         value
##    <fct>   <chr>        <dbl>
##  1 setosa  Sepal.Length   5.1
##  2 setosa  Sepal.Width    3.5
##  3 setosa  Petal.Length   1.4
##  4 setosa  Petal.Width    0.2
##  5 setosa  Sepal.Length   4.9
##  6 setosa  Sepal.Width    3  
##  7 setosa  Petal.Length   1.4
##  8 setosa  Petal.Width    0.2
##  9 setosa  Sepal.Length   4.7
## 10 setosa  Sepal.Width    3.2
## # ... with 590 more rows
…
